…
Each time returns a different result - How do we put them all together?

Let’s start with a for loop!

``` r
output = vector("list", length = 100) # do it 100 times

for (i in 1:100) {
  output[[i]] = sim_mean_sd(n_obs = 30)
}

bind_rows(output) 
```

    ## # A tibble: 100 × 2
    ##    mu_hat sigma_hat
    ##     <dbl>     <dbl>
    ##  1   7.82      3.47
    ##  2   6.94      3.85
    ##  3   6.62      4.97
    ##  4   5.96      3.87
    ##  5   7.66      3.28
    ##  6   6.31      4.91
    ##  7   6.98      4.04
    ##  8   6.19      5.11
    ##  9   7.17      3.66
    ## 10   6.42      3.92
    ## # … with 90 more rows
…
